
@startuml
skinparam padding 10
skinparam ParticipantPadding 10
skinparam BoxPadding 20

title Vuex Life Cycle

actor User
collections Component
box "vuex" #dddddd
collections Action
collections Mutations
collections Getter
collections State
end box
collections Api

User -> Component : Click Add Event
activate Component #666666

Component -> Action : Call Action
activate Action #666666

Action ->> Api : Axios Request
activate Api #666666
activate Api #red

Api -->> Action : Axios Catch Error
deactivate
activate Action #red

Action -->> User : Error Message
deactivate

Api -->> Action : Axios Response
deactivate

Action -> Mutations : Call Mutations
deactivate
activate Mutations #666666

Mutations -> State : Set State
deactivate
activate State #666666

|||

Component ->> State : Watch State
activate Component

State -->> Component : Change State

|||

Component -> Getter : Call Getter
activate Getter #666666

Getter -> State : Access State

State -> Getter : get State
deactivate State

Getter -->> Component : get getter
deactivate Getter

deactivate Component

Component -->> User : list View
deactivate

|||

@enduml